…
Lastly, we want to summarize the number of times a word occurs.

``` r
words_df %>% 
  group_by(words) %>% 
  summarize(word_count = n()) %>%
  arrange(desc(word_count))
```

    ## # A tibble: 90 × 2
    ##    words word_count
    ##    <chr>      <int>
    ##  1 dolor          4
    ##  2 a              3
    ##  3 sit            3
    ##  4 velit          3
    ##  5 amet           2
    ##  6 dui            2
    ##  7 elit           2
    ##  8 enim.          2
    ##  9 eu             2
    ## 10 id             2
    ## # … with 80 more rows
…
