…
``` r
data %>% filter(Countries == "Sweden")
```

    ## # A tibble: 750 × 3
    ##    Date       Cases Countries
    ##    <date>     <dbl> <chr>    
    ##  1 2022-02-22  3189 Sweden   
    ##  2 2022-02-21  2283 Sweden   
    ##  3 2022-02-20  1088 Sweden   
    ##  4 2022-02-19  1970 Sweden   
    ##  5 2022-02-18  3423 Sweden   
    ##  6 2022-02-17  4217 Sweden   
    ##  7 2022-02-16  4049 Sweden   
    ##  8 2022-02-15  4882 Sweden   
    ##  9 2022-02-14  2548 Sweden   
    ## 10 2022-02-13  1177 Sweden   
    ## # … with 740 more rows
…
